Create columns by applying functions to vectors and/or columns in dplyr • dplyover
…
# For better printing:
iris <- as_tibble(iris)

Apply functions to a vector

over() applies one or several functions to a vector. We can use it inside dplyr::mutate() to create several similar variables that we derive from an existing column. This is helpful in cases where we want to create a batch of similar variables with only slightly changes in the argument values of the calling function. A good example are lag and lead variables. Below we use column ‘a’ to create lag and lead variables by 1, 2 and 3 positions. over()’s .names argument lets us put nice names on the output columns.

tibble(a = 1:25) %>%
  mutate(over(c(1:3),
              list(lag  = ~ lag(a, .x),
                   lead = ~ lead(a, .x)),
              .names = "a_{fn}{x}"))
#> # A tibble: 25 x 7
#>       a a_lag1 a_lead1 a_lag2 a_lead2 a_lag3 a_lead3
#>   <int>  <int>   <int>  <int>   <int>  <int>   <int>
#> 1     1     NA       2     NA       3     NA       4
#> 2     2      1       3     NA       4     NA       5
#> 3     3      2       4      1       5     NA       6
#> 4     4      3       5      2       6      1       7
#> # ... with 21 more rows
…
Apply functions to a set of variable pairs

across2() can be used to transform pairs of variables in one or more functions. In the example below we want to calculate the product and the sum of all pairs of ‘Length’ and ‘Width’ variables in the iris data set. We can use {pre} in the glue specification in .names to extract the common prefix of each pair of variables. We can further transform the names, in the example setting them tolower, by specifying the .names_fn argument:

iris %>%
  transmute(across2(ends_with("Length"),
                    ends_with("Width"),
                    .fns = list(product = ~ .x * .y,
                                sum = ~ .x + .y),
                   .names = "{pre}_{fn}",
                   .names_fn = tolower))
#> # A tibble: 150 x 4
#>   sepal_product sepal_sum petal_product petal_sum
#>           <dbl>     <dbl>         <dbl>     <dbl>
#> 1          17.8       8.6         0.280      1.60
#> 2          14.7       7.9         0.280      1.60
#> 3          15.0       7.9         0.26       1.5 
#> 4          14.3       7.7         0.3        1.7 
#> # ... with 146 more rows
…
