…
``` r
iris %>%
  transmute(across2(ends_with("Length"),
                    ends_with("Width"),
                    .fns = list(product = ~ .x * .y,
                                sum = ~ .x + .y),
                   .names = "{pre}_{fn}",
                   .names_fn = tolower))
#> # A tibble: 150 x 4
#>    sepal_product sepal_sum petal_product petal_sum
#>            <dbl>     <dbl>         <dbl>     <dbl>
#>  1          17.8       8.6         0.280      1.60
#>  2          14.7       7.9         0.280      1.60
#>  3          15.0       7.9         0.26       1.5 
#>  4          14.3       7.7         0.3        1.7 
#>  5          18         8.6         0.280      1.60
#>  6          21.1       9.3         0.68       2.1 
#>  7          15.6       8           0.42       1.7 
#>  8          17         8.4         0.3        1.7 
#>  9          12.8       7.3         0.280      1.60
#> 10          15.2       8           0.15       1.6 
#> # … with 140 more rows
```
…
