Apply functions to two sets of columns simultaniously in 'dplyr' — across2 • dplyover
…
across2() can be used to transfrom pairs of variables in one or more functions.
In the example below we want to calculate the product and the sum of all pairs of
'Length' and 'Width' variables. We can use {pre} in the glue specification in
.names to extract the common prefix of each pair of variables. We can further
transform the names, in the example setting them tolower by specifying the
.names_fn argument:

iris %>%
  transmute(across2(ends_with("Length"),
                    ends_with("Width"),
                    .fns = list(product = ~ .x * .y,
                                sum = ~ .x + .y),
                   .names = "{pre}_{fn}",
                   .names_fn = tolower))
#> # A tibble: 150 x 4
#>   sepal_product sepal_sum petal_product petal_sum
#>           <dbl>     <dbl>         <dbl>     <dbl>
#> 1          17.8       8.6         0.280      1.60
#> 2          14.7       7.9         0.280      1.60
#> 3          15.0       7.9         0.26       1.5 
#> 4          14.3       7.7         0.3        1.7 
#> # ... with 146 more rows
…
