Apply functions to two vectors simultaniously in 'dplyr' — over2 • dplyover
…
brks <- list(b1 = 3:8,
             b2 = seq(3, 9, by = 2))

labs <- list(l1 = c("3 to 4", "4 to 5", "5 to 6",
                   "6 to 7", "7 to 8"),
            l2 = c("3 to 5", "5 to 7", "7 to 9"))

iris %>%
  transmute(over2(brks, labs,
                  ~ cut(Sepal.Length,
                        breaks = .x,
                        labels = .y),
                  .names = "Sepal.Length.cut{x_idx}"))
#> # A tibble: 150 x 2
#>   Sepal.Length.cut1 Sepal.Length.cut2
#>   <fct>             <fct>            
#> 1 5 to 6            5 to 7           
#> 2 4 to 5            3 to 5           
#> 3 4 to 5            3 to 5           
#> 4 4 to 5            3 to 5           
#> # ... with 146 more rows
…
