Apply functions to a list or vector in 'dplyr' — over • dplyover
…
# For better printing
iris <- as_tibble(iris)

(1) The General Use Case

Here the values in .x are used as inputs to one or more functions in .fns.
This is useful, when we want to create several new variables based on the same
function with varying arguments. A good example is creating a bunch of lagged
variables.

tibble(x = 1:25) %>%
  mutate(over(c(1:3),
              ~ lag(x, .x)))
#> # A tibble: 25 x 4
#>       x   `1`   `2`   `3`
#>   <int> <int> <int> <int>
#> 1     1    NA    NA    NA
#> 2     2     1    NA    NA
#> 3     3     2     1    NA
#> 4     4     3     2     1
#> # ... with 21 more rows

Lets create a dummy variable for each unique value in 'Species':

iris %>%
  mutate(over(unique(Species),
             ~ if_else(Species == .x, 1, 0)),
         .keep = "none")
#> # A tibble: 150 x 3
#>   setosa versicolor virginica
#>    <dbl>      <dbl>     <dbl>
#> 1      1          0         0
#> 2      1          0         0
#> 3      1          0         0
#> 4      1          0         0
#> # ... with 146 more rows

With over() it is also possible to create several dummy variables with
different thresholds. We can use the .names argument to control the output
names:

iris %>%
mutate(over(seq(4, 7, by = 1),
            ~ if_else(Sepal.Length < .x, 1, 0),
            .names = "Sepal.Length_{x}"),
         .keep = "none")
#> # A tibble: 150 x 4
#>   Sepal.Length_4 Sepal.Length_5 Sepal.Length_6 Sepal.Length_7
#>            <dbl>          <dbl>          <dbl>          <dbl>
#> 1              0              0              1              1
#> 2              0              1              1              1
#> 3              0              1              1              1
#> 4              0              1              1              1
#> # ... with 146 more rows
…
recode_df <- data.frame(old  = c(1, 2, 3, 4, 5),
                        top1 = c(0, 0, 0, 0, 1),
                        top2 = c(0, 0, 0, 1, 1),
                        bot1 = c(1, 0, 0, 0, 0),
                        bot2 = c(1, 1, 0, 0, 0))

csatraw %>%
  mutate(over(recode_df[,-1],
              ~ .x[match(item1, recode_df[, 1])],
              .names = "item1_{x}")) %>%
  select(starts_with("item1"))
#> # A tibble: 150 x 6
#>   item1 item1_open item1_top1 item1_top2 item1_bot1 item1_bot2
#>   <dbl> <chr>           <dbl>      <dbl>      <dbl>      <dbl>
#> 1     3 12                  0          0          0          0
#> 2     2 22                  0          0          0          1
#> 3     2 21, 22, 23          0          0          0          1
#> 4     4 12, 13, 11          0          1          0          0
#> # ... with 146 more rows
…
Below are a few examples using two colums in the function calls in .fns.
For the two column case across2() provides a more intuitive API that is
closer to the original dplyr::across. Using .() inside over is really
useful for cases with more than two columns.

Consider the following example of a purrr-style formula in .fns using .():

iris %>%
  mutate(over(c("Sepal", "Petal"),
              ~ .("{.x}.Width") + .("{.x}.Length")
              ))
#> # A tibble: 150 x 7
#>   Sepal.Length Sepal.Width Petal.Length Petal.Width Species Sepal Petal
#>          <dbl>       <dbl>        <dbl>       <dbl> <fct>   <dbl> <dbl>
#> 1          5.1         3.5          1.4         0.2 setosa    8.6  1.60
#> 2          4.9         3            1.4         0.2 setosa    7.9  1.60
#> 3          4.7         3.2          1.3         0.2 setosa    7.9  1.5 
#> 4          4.6         3.1          1.5         0.2 setosa    7.7  1.7 
#> # ... with 146 more rows

The above syntax is equal to the more verbose:

iris %>%
  mutate(over(c("Sepal", "Petal"),
              ~ eval(sym(paste0(.x, ".Width"))) +
                eval(sym(paste0(.x, ".Length")))
              ))
#> # A tibble: 150 x 7
#>   Sepal.Length Sepal.Width Petal.Length Petal.Width Species Sepal Petal
#>          <dbl>       <dbl>        <dbl>       <dbl> <fct>   <dbl> <dbl>
#> 1          5.1         3.5          1.4         0.2 setosa    8.6  1.60
#> 2          4.9         3            1.4         0.2 setosa    7.9  1.60
#> 3          4.7         3.2          1.3         0.2 setosa    7.9  1.5 
#> 4          4.6         3.1          1.5         0.2 setosa    7.7  1.7 
#> # ... with 146 more rows
…
A named list of functions:

iris %>%
  mutate(over(c("Sepal", "Petal"),
              list(product = ~ .("{.x}.Width") * .("{.x}.Length"),
                   sum = ~ .("{.x}.Width") + .("{.x}.Length"))
                   ),
         .keep = "none")
#> # A tibble: 150 x 4
#>   Sepal_product Sepal_sum Petal_product Petal_sum
#>           <dbl>     <dbl>         <dbl>     <dbl>
#> 1          17.8       8.6         0.280      1.60
#> 2          14.7       7.9         0.280      1.60
#> 3          15.0       7.9         0.26       1.5 
#> 4          14.3       7.7         0.3        1.7 
#> # ... with 146 more rows

Again, use the .names argument to control the output names:

iris %>%
  mutate(over(c("Sepal", "Petal"),
              list(product = ~ .("{.x}.Width") * .("{.x}.Length"),
                   sum = ~ .("{.x}.Width") + .("{.x}.Length")),
              .names = "{fn}_{x}"),
         .keep = "none")
#> # A tibble: 150 x 4
#>   product_Sepal sum_Sepal product_Petal sum_Petal
#>           <dbl>     <dbl>         <dbl>     <dbl>
#> 1          17.8       8.6         0.280      1.60
#> 2          14.7       7.9         0.280      1.60
#> 3          15.0       7.9         0.26       1.5 
#> 4          14.3       7.7         0.3        1.7 
#> # ... with 146 more rows
…
