Select values from variables — select_values • dplyover
…
library(dplyr)

# For better printing
iris <- as_tibble(iris)

dist_values() extracts all distinct values of a column variable.
This is helpful when creating dummy variables in a loop using over().

iris %>%
  mutate(over(dist_values(Species),
              ~ if_else(Species == .x, 1, 0)
              ),
         .keep = "none")
#> # A tibble: 150 x 3
#>   setosa versicolor virginica
#>    <dbl>      <dbl>     <dbl>
#> 1      1          0         0
#> 2      1          0         0
#> 3      1          0         0
#> 4      1          0         0
#> # ... with 146 more rows
…
