Select string parts or patterns of column names — select_vars • dplyover
…
extract_names("Width", .vars = "Width.Petal.Width")
#> [1] "Width"
str_extract("Width.Petal.Width", "Width")
#> [1] "Width"

Within over() cut_names() and extract_names() automatically use the
column names of the underlying data:

iris %>%
mutate(over(cut_names(".Width"),
            ~ .("{.x}.Width") * .("{.x}.Length"),
            .names = "Product_{x}"))
#> # A tibble: 150 x 7
#>   Sepal.Length Sepal.Width Petal.Length Petal.Width Species Product_Sepal Product_Petal
#>          <dbl>       <dbl>        <dbl>       <dbl> <fct>           <dbl>         <dbl>
#> 1          5.1         3.5          1.4         0.2 setosa           17.8         0.280
#> 2          4.9         3            1.4         0.2 setosa           14.7         0.280
#> 3          4.7         3.2          1.3         0.2 setosa           15.0         0.26 
#> 4          4.6         3.1          1.5         0.2 setosa           14.3         0.3  
#> # ... with 146 more rows

iris %>%
  mutate(over(extract_names("Length|Width"),
              ~.("Petal.{.x}") * .("Sepal.{.x}"),
             .names = "Product_{x}"))
#> # A tibble: 150 x 7
#>   Sepal.Length Sepal.Width Petal.Length Petal.Width Species Product_Length Product_Width
#>          <dbl>       <dbl>        <dbl>       <dbl> <fct>            <dbl>         <dbl>
#> 1          5.1         3.5          1.4         0.2 setosa            7.14          0.7 
#> 2          4.9         3            1.4         0.2 setosa            6.86          0.6 
#> 3          4.7         3.2          1.3         0.2 setosa            6.11          0.64
#> 4          4.6         3.1          1.5         0.2 setosa            6.9           0.62
#> # ... with 146 more rows
…
The survey has several 'item's consisting of two sub-questions / variables 'a'
and 'b'. Lets say we want to calculate the product of those two variables for
each item. extract_names() helps us to select all variables containing
'item' followed by a digit using the regex "item\\d" as .pattern.
However, there is 'item1'  and 'item1_open' which are not followed by a and
b. extract_names() lets us exclude these items by setting the .remove
argument to [^item1]:

csatraw %>%
 transmute(over(extract_names("item\\d", "^item1"),
                ~ .("{.x}a") * .("{.x}b"))
 )
#> # A tibble: 150 x 5
#>   item2 item3 item4 item5 item6
#>   <dbl> <dbl> <dbl> <dbl> <dbl>
#> 1     6     4    NA    10     6
#> 2     4    12     6     6     2
#> 3    10    15    NA     6     6
#> 4    15     6    NA     8     2
#> # ... with 146 more rows
…
