Evaluate an interpolated string as symbol — string_eval • dplyover
…
library(dplyr)

# For better printing
iris <- as_tibble(iris)

Below is a simple example from over(). In  over's function
argument .x is first evaluated as 'Sepal' and then as 'Petal' which
results in the final argument strings 'Sepal.Width' and 'Sepal.Length' as
well as 'Petal.Width' and 'Petal.Length'.

iris %>%
  mutate(over(c("Sepal", "Petal"),
              ~ .("{.x}.Width") + .("{.x}.Length")
              ))
#> # A tibble: 150 x 7
#>   Sepal.Length Sepal.Width Petal.Length Petal.Width Species Sepal Petal
#>          <dbl>       <dbl>        <dbl>       <dbl> <fct>   <dbl> <dbl>
#> 1          5.1         3.5          1.4         0.2 setosa    8.6  1.60
#> 2          4.9         3            1.4         0.2 setosa    7.9  1.60
#> 3          4.7         3.2          1.3         0.2 setosa    7.9  1.5 
#> 4          4.6         3.1          1.5         0.2 setosa    7.7  1.7 
#> # ... with 146 more rows

The above syntax is equal to the more verbose:

iris %>%
  mutate(over(c("Sepal", "Petal"),
              ~ eval(sym(paste0(.x, ".Width"))) +
                eval(sym(paste0(.x, ".Length")))
              ))
#> # A tibble: 150 x 7
#>   Sepal.Length Sepal.Width Petal.Length Petal.Width Species Sepal Petal
#>          <dbl>       <dbl>        <dbl>       <dbl> <fct>   <dbl> <dbl>
#> 1          5.1         3.5          1.4         0.2 setosa    8.6  1.60
#> 2          4.9         3            1.4         0.2 setosa    7.9  1.60
#> 3          4.7         3.2          1.3         0.2 setosa    7.9  1.5 
#> 4          4.6         3.1          1.5         0.2 setosa    7.7  1.7 
#> # ... with 146 more rows
…
iris %>%
  rename("Sepal" = "Sepal.Length",
         "Petal" = "Petal.Length") %>%
   mutate(across(c(Sepal, Petal),
                 ~ .(cur_column()) + .("{cur_column()}.Width"),
                 .names = "{col}_sum"))
#> # A tibble: 150 x 7
#>   Sepal Sepal.Width Petal Petal.Width Species Sepal_sum Petal_sum
#>   <dbl>       <dbl> <dbl>       <dbl> <fct>       <dbl>     <dbl>
#> 1   5.1         3.5   1.4         0.2 setosa        8.6      1.60
#> 2   4.9         3     1.4         0.2 setosa        7.9      1.60
#> 3   4.7         3.2   1.3         0.2 setosa        7.9      1.5 
#> 4   4.6         3.1   1.5         0.2 setosa        7.7      1.7 
#> # ... with 146 more rows

A similar approach can be achieved using purrr::map in combination with .():

iris %>%
  rename("Sepal" = "Sepal.Length",
         "Petal" = "Petal.Length") %>%
  mutate(purrr::map_dfc(c("Sepal_sum" = "Sepal", "Petal_sum" = "Petal"),
                        ~ .(.x) + .("{.x}.Width")))
#> # A tibble: 150 x 7
#>   Sepal Sepal.Width Petal Petal.Width Species Sepal_sum Petal_sum
#>   <dbl>       <dbl> <dbl>       <dbl> <fct>       <dbl>     <dbl>
#> 1   5.1         3.5   1.4         0.2 setosa        8.6      1.60
#> 2   4.9         3     1.4         0.2 setosa        7.9      1.60
#> 3   4.7         3.2   1.3         0.2 setosa        7.9      1.5 
#> 4   4.6         3.1   1.5         0.2 setosa        7.7      1.7 
#> # ... with 146 more rows
…
