Performance and Compability • dplyover
…
Compability

At the moment three unintended compability issues are worth mentioning:

Only partial support of mutate()’s .keep argument

Since {dplyr} 1.0 mutate has gained a .keep argument, which allows us to control which columns are retained in the output. This works well with genuine {dplyr} functions like across:

diamonds %>% mutate(across(z, ~ .x + y),
                    .keep = "used")
#> # A tibble: 53,940 x 2
#>       y     z
#>   <dbl> <dbl>
#> 1  3.98  6.41
#> 2  3.84  6.15
#> 3  4.07  6.38
#> 4  4.23  6.86
#> # ... with 53,936 more rows

.keep not only recognizes that across is used on colum ‘z’, it also registers that we used column ‘y’ in across’s .fns argument. Unfortunately, .keep is only partially supported within {dplyover}. It works with columns that are used inside the .fns argument.

diamonds %>% mutate(over(1, ~ y + 1),
                    .keep = "used")
#> # A tibble: 53,940 x 2
#>       y   `1`
#>   <dbl> <dbl>
#> 1  3.98  4.98
#> 2  3.84  4.84
#> 3  4.07  5.07
#> 4  4.23  5.23
#> # ... with 53,936 more rows

But it does not work with columns provide in the .xcols or .ycols argument in crossover or across2.

diamonds %>% mutate(crossover(y, 1, ~ .x + z),
                    .keep = "unused")
#> Warning: `crossover()` does not support the `.keep` argument in
#> `dplyr::mutate()` when set to 'used' or 'unused'.
#> # A tibble: 53,940 x 1
#>     y_1
#>   <dbl>
#> 1  6.41
#> 2  6.15
#> 3  6.38
#> 4  6.86
#> # ... with 53,936 more rows

For this reason, crossover, across2, and across2x issue a warning when mutate’s .keep argument is specified.

Differences in the glue syntax

dplyr::across() allows the use of local variables in addition to {col} and {fn} in the glue syntax of its .names argument. This is currently not supported by the over-across functions in {dplyover}. To somewhat leviate this issue the over-across functions allow character vectors to be supplied to the .names argument (similar to poorman::across).

Example:
 We can do this with dplyr::across:

prefix <- "lag1"
tibble(a = 1:25) %>%
  mutate(across(everything(), lag, 1, .names = "{.col}_{prefix}"))
#> # A tibble: 25 x 2
#>       a a_lag1
#>   <int>  <int>
#> 1     1     NA
#> 2     2      1
#> 3     3      2
#> 4     4      3
#> # ... with 21 more rows

In {dplyover} we would need to construct the names outside of the function call and supply this vector to .names:

col_nms <- "a_lag1"
tibble(a = 1:25) %>%
  mutate(over(1, ~ lag(a, .x), .names = col_nms))
#> # A tibble: 25 x 2
#>       a a_lag1
#>   <int>  <int>
#> 1     1     NA
#> 2     2      1
#> 3     3      2
#> 4     4      3
#> # ... with 21 more rows
…
