Why dplyover? • dplyover
…
Creating several lagged variables for a set of columns

In exploratory data analysis creating a range of lagged variants of several variables is not an uncommon use case. Let’s take the diamonds data set from {ggplot2} and create five lagged versions of columns ‘x’, ‘y’ and ‘z’ by positions 1 to 5. crossover allows us to iterate a set of columns over a vector:

diamonds %>% 
  mutate(crossover(c(x,y,z),
                   1:5,
                   list(lag = ~ lag(.x, .y)),
                   .names = "{xcol}_{fn}{y}"))
#> # A tibble: 53,940 x 25
#>   carat cut     color clarity depth table price     x     y     z x_lag1 x_lag2
#>   <dbl> <ord>   <ord> <ord>   <dbl> <dbl> <int> <dbl> <dbl> <dbl>  <dbl>  <dbl>
#> 1 0.23  Ideal   E     SI2      61.5    55   326  3.95  3.98  2.43  NA     NA   
#> 2 0.21  Premium E     SI1      59.8    61   326  3.89  3.84  2.31   3.95  NA   
#> 3 0.23  Good    E     VS1      56.9    65   327  4.05  4.07  2.31   3.89   3.95
#> 4 0.290 Premium I     VS2      62.4    58   334  4.2   4.23  2.63   4.05   3.89
#> # ... with 53,936 more rows, and 13 more variables: x_lag3 <dbl>, x_lag4 <dbl>,
#> #   x_lag5 <dbl>, y_lag1 <dbl>, y_lag2 <dbl>, y_lag3 <dbl>, y_lag4 <dbl>,
#> #   y_lag5 <dbl>, ...
…
